%YAML 1.1
%TAG !u! tag:unity3d.com,2011:
--- !u!114 &11400000
MonoBehaviour:
  m_ObjectHideFlags: 0
  m_CorrespondingSourceObject: {fileID: 0}
  m_PrefabInternal: {fileID: 0}
  m_GameObject: {fileID: 0}
  m_Enabled: 1
  m_EditorHideFlags: 0
  m_Script: {fileID: 11500000, guid: 9d1514134bc4fbd41bb739b1b9a49231, type: 3}
  m_Name: GroundRuleTile
  m_EditorClassIdentifier: 
  m_DefaultSprite: {fileID: 21300022, guid: 5f661e6cef36f6f4d8cf2b57985ded07, type: 3}
  m_DefaultGameObject: {fileID: 1233618450569870, guid: d44e883589a08f540b6cae51b48e75fe,
    type: 2}
  m_DefaultColliderType: 0
  m_TilingRules:
  - m_Neighbors: 0000000002000000000000000200000002000000000000000200000000000000
    m_Sprites:
    - {fileID: 21300034, guid: 5f661e6cef36f6f4d8cf2b57985ded07, type: 3}
    m_GameObject: {fileID: 1233618450569870, guid: d44e883589a08f540b6cae51b48e75fe,
      type: 2}
    m_AnimationSpeed: 1
    m_PerlinScale: 0.5
    m_RuleTransform: 0
    m_Output: 0
    m_ColliderType: 0
    m_RandomTransform: 0
  - m_Neighbors: 0000000001000000000000000200000001000000000000000100000000000000
    m_Sprites:
    - {fileID: 21300020, guid: 5f661e6cef36f6f4d8cf2b57985ded07, type: 3}
    m_GameObject: {fileID: 1233618450569870, guid: d44e883589a08f540b6cae51b48e75fe,
      type: 2}
    m_AnimationSpeed: 1
    m_PerlinScale: 0.5
    m_RuleTransform: 0
    m_Output: 0
    m_ColliderType: 1
    m_RandomTransform: 0
  - m_Neighbors: 0000000001000000000000000100000002000000000000000100000000000000
    m_Sprites:
    - {fileID: 21300024, guid: 5f661e6cef36f6f4d8cf2b57985ded07, type: 3}
    m_GameObject: {fileID: 1233618450569870, guid: d44e883589a08f540b6cae51b48e75fe,
      type: 2}
    m_AnimationSpeed: 1
    m_PerlinScale: 0.5
    m_RuleTransform: 0
    m_Output: 0
    m_ColliderType: 1
    m_RandomTransform: 0
  - m_Neighbors: 0000000001000000000000000200000002000000000000000100000000000000
    m_Sprites:
    - {fileID: 21300030, guid: 5f661e6cef36f6f4d8cf2b57985ded07, type: 3}
    m_GameObject: {fileID: 1233618450569870, guid: d44e883589a08f540b6cae51b48e75fe,
      type: 2}
    m_AnimationSpeed: 1
    m_PerlinScale: 0.5
    m_RuleTransform: 0
    m_Output: 0
    m_ColliderType: 1
    m_RandomTransform: 0
  - m_Neighbors: 0000000002000000000000000100000001000000000000000200000000000000
    m_Sprites:
    - {fileID: 21300046, guid: 5f661e6cef36f6f4d8cf2b57985ded07, type: 3}
    m_GameObject: {fileID: 1233618450569870, guid: d44e883589a08f540b6cae51b48e75fe,
      type: 2}
    m_AnimationSpeed: 1
    m_PerlinScale: 0.5
    m_RuleTransform: 0
    m_Output: 0
    m_ColliderType: 0
    m_RandomTransform: 0
  - m_Neighbors: 0000000001000000000000000200000001000000000000000200000000000000
    m_Sprites:
    - {fileID: 21300038, guid: 5f661e6cef36f6f4d8cf2b57985ded07, type: 3}
    m_GameObject: {fileID: 1233618450569870, guid: d44e883589a08f540b6cae51b48e75fe,
      type: 2}
    m_AnimationSpeed: 1
    m_PerlinScale: 0.5
    m_RuleTransform: 0
    m_Output: 0
    m_ColliderType: 1
    m_RandomTransform: 0
  - m_Neighbors: 0000000002000000000000000200000001000000000000000200000000000000
    m_Sprites:
    - {fileID: 21300044, guid: 5f661e6cef36f6f4d8cf2b57985ded07, type: 3}
    m_GameObject: {fileID: 1233618450569870, guid: d44e883589a08f540b6cae51b48e75fe,
      type: 2}
    m_AnimationSpeed: 1
    m_PerlinScale: 0.5
    m_RuleTransform: 0
    m_Output: 0
    m_ColliderType: 1
    m_RandomTransform: 0
  - m_Neighbors: 0000000001000000000000000200000002000000000000000200000000000000
    m_Sprites:
    - {fileID: 21300054, guid: 5f661e6cef36f6f4d8cf2b57985ded07, type: 3}
    m_GameObject: {fileID: 1233618450569870, guid: d44e883589a08f540b6cae51b48e75fe,
      type: 2}
    m_AnimationSpeed: 1
    m_PerlinScale: 0.5
    m_RuleTransform: 0
    m_Output: 0
    m_ColliderType: 1
    m_RandomTransform: 0
  - m_Neighbors: 0000000002000000000000000100000002000000000000000200000000000000
    m_Sprites:
    - {fileID: 21300050, guid: 5f661e6cef36f6f4d8cf2b57985ded07, type: 3}
    m_GameObject: {fileID: 1233618450569870, guid: d44e883589a08f540b6cae51b48e75fe,
      type: 2}
    m_AnimationSpeed: 1
    m_PerlinScale: 0.5
    m_RuleTransform: 0
    m_Output: 0
    m_ColliderType: 1
    m_RandomTransform: 0
  - m_Neighbors: 0000000001000000000000000100000002000000000000000200000000000000
    m_Sprites:
    - {fileID: 21300042, guid: 5f661e6cef36f6f4d8cf2b57985ded07, type: 3}
    m_GameObject: {fileID: 1233618450569870, guid: d44e883589a08f540b6cae51b48e75fe,
      type: 2}
    m_AnimationSpeed: 1
    m_PerlinScale: 0.5
    m_RuleTransform: 0
    m_Output: 0
    m_ColliderType: 1
    m_RandomTransform: 0
  - m_Neighbors: 0000000002000000000000000200000002000000000000000100000000000000
    m_Sprites:
    - {fileID: 21300012, guid: 5f661e6cef36f6f4d8cf2b57985ded07, type: 3}
    m_GameObject: {fileID: 1233618450569870, guid: d44e883589a08f540b6cae51b48e75fe,
      type: 2}
    m_AnimationSpeed: 1
    m_PerlinScale: 0.5
    m_RuleTransform: 0
    m_Output: 0
    m_ColliderType: 1
    m_RandomTransform: 0
  - m_Neighbors: 0200000001000000020000000100000001000000020000000100000002000000
    m_Sprites:
    - {fileID: 21300048, guid: 5f661e6cef36f6f4d8cf2b57985ded07, type: 3}
    m_GameObject: {fileID: 1233618450569870, guid: d44e883589a08f540b6cae51b48e75fe,
      type: 2}
    m_AnimationSpeed: 1
    m_PerlinScale: 0.5
    m_RuleTransform: 0
    m_Output: 0
    m_ColliderType: 1
    m_RandomTransform: 0
  - m_Neighbors: 0200000001000000020000000100000001000000000000000000000000000000
    m_Sprites:
    - {fileID: 21300014, guid: 5f661e6cef36f6f4d8cf2b57985ded07, type: 3}
    m_GameObject: {fileID: 1233618450569870, guid: d44e883589a08f540b6cae51b48e75fe,
      type: 2}
    m_AnimationSpeed: 1
    m_PerlinScale: 0.5
    m_RuleTransform: 0
    m_Output: 0
    m_ColliderType: 1
    m_RandomTransform: 0
  - m_Neighbors: 0000000002000000000000000200000001000000000000000100000000000000
    m_Sprites:
    - {fileID: 21300002, guid: 5f661e6cef36f6f4d8cf2b57985ded07, type: 3}
    m_GameObject: {fileID: 1233618450569870, guid: d44e883589a08f540b6cae51b48e75fe,
      type: 2}
    m_AnimationSpeed: 1
    m_PerlinScale: 0.5
    m_RuleTransform: 0
    m_Output: 0
    m_ColliderType: 1
    m_RandomTransform: 0
  - m_Neighbors: 0000000002000000000000000100000001000000000000000100000000000000
    m_Sprites:
    - {fileID: 21300004, guid: 5f661e6cef36f6f4d8cf2b57985ded07, type: 3}
    m_GameObject: {fileID: 1233618450569870, guid: d44e883589a08f540b6cae51b48e75fe,
      type: 2}
    m_AnimationSpeed: 1
    m_PerlinScale: 0.5
    m_RuleTransform: 0
    m_Output: 0
    m_ColliderType: 1
    m_RandomTransform: 0
  - m_Neighbors: 0000000002000000000000000100000002000000000000000100000000000000
    m_Sprites:
    - {fileID: 21300006, guid: 5f661e6cef36f6f4d8cf2b57985ded07, type: 3}
    m_GameObject: {fileID: 1233618450569870, guid: d44e883589a08f540b6cae51b48e75fe,
      type: 2}
    m_AnimationSpeed: 1
    m_PerlinScale: 0.5
    m_RuleTransform: 0
    m_Output: 0
    m_ColliderType: 1
    m_RandomTransform: 0
  - m_Neighbors: 0000000001000000000000000100000001000000000000000200000000000000
    m_Sprites:
    - {fileID: 21300040, guid: 5f661e6cef36f6f4d8cf2b57985ded07, type: 3}
    m_GameObject: {fileID: 1233618450569870, guid: d44e883589a08f540b6cae51b48e75fe,
      type: 2}
    m_AnimationSpeed: 1
    m_PerlinScale: 0.5
    m_RuleTransform: 0
    m_Output: 0
    m_ColliderType: 1
    m_RandomTransform: 0
  - m_Neighbors: 0000000000000000000000000000000000000000000000000000000000000000
    m_Sprites:
    - {fileID: 21300022, guid: 5f661e6cef36f6f4d8cf2b57985ded07, type: 3}
    m_GameObject: {fileID: 1233618450569870, guid: d44e883589a08f540b6cae51b48e75fe,
      type: 2}
    m_AnimationSpeed: 1
    m_PerlinScale: 0.5
    m_RuleTransform: 0
    m_Output: 0
    m_ColliderType: 1
    m_RandomTransform: 0
